digraph g {
graph [
rankdir = "TB",
];
node [
fontsize = "16"
shape = "ellipse"

];
edge [
];
subgraph cluster_1 {
"preamble" [
label = "<f0>0x00|0x00|..|0x00|0x00<f1>"
shape = "record"
];
"start" [
label = "0xAA"
shape = "record"
];
"command" [
label = "0x20"
shape = "record"
];
"stationId" [
label = "0x12|0x34"
shape = "record"
];
"cardId" [
label = "0xAB|0xCD|0xEF"
shape = "record"
];
"postscript" [
label = "0x00|0x00|0x00"
shape = "record"
];
"crc" [
label = "0xAB"
shape = "record"
];
"ending" [
label = "0xFE"
shape = "record"
];
}
"Preamble\n(16 bytes)" [color=white] 
"Preamble\n(16 bytes)" -> preamble

"Start\ncharacter" [color=white]
"Start\ncharacter" -> start

"Command\n byte" [color=white]
"Command\n byte" -> command

"Station\n address" [color=white]
"Station\n address" -> stationId

"Card\n ID" [color=white]
"Card\n ID" -> cardId

"Follow-up" [color=white]
"Follow-up" -> postscript

"CRC" [color=white]
"CRC" -> crc

"Ending\n character" [color=white]
"Ending\n character" -> ending
}